{
    "DNDConfig": null,
    "_height_": {
        "type": "ref",
        "value": "preferred"
    },
    "_left_": {
        "type": "string",
        "value": "0dp"
    },
    "_margin_": [
        0,
        0,
        0,
        0
    ],
    "_orientation_": 6,
    "_padding_": [
        0,
        0,
        0,
        0
    ],
    "_percent_": true,
    "_skin_": "sb71515a25254d59957fd967a19c5a11",
    "_top_": {
        "type": "string",
        "value": "0dp"
    },
    "_width_": {
        "type": "string",
        "value": "100%"
    },
    "allboxes": [],
    "autogrowmode": 1,
    "canUpdateUI": true,
    "children": [
        "lblDriverNameHdr",
        "lblDriverName",
        "lblVehRegHdr",
        "lblVehReg",
        "lblRegNumHdr",
        "lblRegNum",
        "flxDepotAddress",
        "lblTelephoneHdr",
        "lblTelephone"
    ],
    "clipbounds": true,
    "containerId": true,
    "containerweight": 100,
    "controllerInfo": {
        "default": {
            "channel": "mobile",
            "name": "flxDriverDetailsController"
        }
    },
    "enablescrolling": true,
    "id": "flxDriverDetails",
    "info": null,
    "isTemplate": true,
    "iscustomlayout": false,
    "isvisible": true,
    "kuid": "f84779e901fb4369abec2d845ec45b1c",
    "layouttype": 4,
    "name": "kony.ui.FlexContainer",
    "parent": "tmpDriverDetails",
    "pf": "tmpDriverDetails",
    "retaincontentalignment": false,
    "retainflexpositionproperties": false,
    "snapgridsize": 10,
    "snaptogrid": true,
    "wType": "FlexContainer",
    "widgetalignment": 1
}