{
    "@class": "com.kony.gen.viz.model.container.KVizSegment2",
    "DNDConfig": null,
    "__parentReadjusting__": false,
    "_data_": [
        {
            "lblConsignmentNumValue": {
                "@class": "com.viz.ide.model.segment.SimpleTextSegmentData",
                "text": "EXIMM/OIALM"
            },
            "lblConsignmnetNumHdr": {
                "@class": "com.viz.ide.model.segment.SimpleTextSegmentData",
                "text": "Waste Consignment Number"
            },
            "lblEmailHdr": {
                "@class": "com.viz.ide.model.segment.SimpleTextSegmentData",
                "text": "Hazardous Waste Consigment notes will be sent to the email address below"
            },
            "lblValidEmail": {
                "@class": "com.viz.ide.model.segment.SimpleTextSegmentData",
                "text": "Label"
            },
            "txtEmail": {
                "@class": "com.viz.ide.model.segment.ComplexTextSegmentData",
                "text": ""
            }
        },
        {
            "lblConsignmentNumValue": {
                "@class": "com.viz.ide.model.segment.SimpleTextSegmentData",
                "text": "EXIMM/OIALM"
            },
            "lblConsignmnetNumHdr": {
                "@class": "com.viz.ide.model.segment.SimpleTextSegmentData",
                "text": "Waste Consignment Number"
            },
            "lblEmailHdr": {
                "@class": "com.viz.ide.model.segment.SimpleTextSegmentData",
                "text": "Hazardous Waste Consigment notes will be sent to the email address below"
            },
            "lblValidEmail": {
                "@class": "com.viz.ide.model.segment.SimpleTextSegmentData",
                "text": "Label"
            },
            "txtEmail": {
                "@class": "com.viz.ide.model.segment.ComplexTextSegmentData",
                "text": ""
            }
        },
        {
            "lblConsignmentNumValue": {
                "@class": "com.viz.ide.model.segment.SimpleTextSegmentData",
                "text": "EXIMM/OIALM"
            },
            "lblConsignmnetNumHdr": {
                "@class": "com.viz.ide.model.segment.SimpleTextSegmentData",
                "text": "Waste Consignment Number"
            },
            "lblEmailHdr": {
                "@class": "com.viz.ide.model.segment.SimpleTextSegmentData",
                "text": "Hazardous Waste Consigment notes will be sent to the email address below"
            },
            "lblValidEmail": {
                "@class": "com.viz.ide.model.segment.SimpleTextSegmentData",
                "text": "Label"
            },
            "txtEmail": {
                "@class": "com.viz.ide.model.segment.ComplexTextSegmentData",
                "text": ""
            }
        }
    ],
    "_height_": {
        "type": "string",
        "value": "78%"
    },
    "_indicator_": "none",
    "_left_": {
        "type": "string",
        "value": "0dp"
    },
    "_margin_": [
        0,
        0,
        0,
        0
    ],
    "_orientation_": 2,
    "_padding_": [
        0,
        0,
        0,
        0
    ],
    "_top_": {
        "type": "string",
        "value": "120dp"
    },
    "_width_": {
        "type": "string",
        "value": "100%"
    },
    "autogrowmode": 0,
    "canUpdateUI": true,
    "containerweight": 100,
    "counter": "02",
    "focusedindex": null,
    "focuseditem": null,
    "groupcells": false,
    "hasSections": false,
    "id": "segCustomerSummary",
    "ide_onRowClick": "AS_Segment_h01ce0d4288a408baa93e79c0a883a22",
    "ide_onSwipe": "AS_Segment_c80881a914b04e8fa51524eb03d2ee38",
    "info": null,
    "invokedProperty": "pageOffDotImage",
    "ipad": {
        "psp": {
            "indicator": "rowselect"
        }
    },
    "iphone": {
        "psp": {
            "indicator": "rowselect"
        }
    },
    "iscustomlayout": false,
    "isvisible": true,
    "kuid": "h60fef8550ad447d8c35d227ca068094",
    "masterdata": {},
    "name": "kony.ui.SegmentedUI2",
    "needpageindicator": true,
    "pageoffdotimage": "scrollunfocused.png",
    "pageondotimage": "scrollfocused.png",
    "paginationconfig": {
        "position": "bottom",
        "vdistance": 1
    },
    "parent": "flxMain",
    "pf": "frmCustomerSummary",
    "retaincontentalignment": false,
    "retainflexpositionproperties": false,
    "retainselection": false,
    "rowTemplateId": "ab178d111b464cc2878ea0619338faa6",
    "rowcounter": 2,
    "rowfocusskin": "s8b4bfd449dc4133a9b24752a487c95d",
    "rowskin": "s5ec462af8124782a0c080159665947d",
    "rowtemplate": "flxEnterMail",
    "screenlevelwidget": false,
    "seccounter": 0,
    "sectionheaderskin": "s4cd093f2844473195744110e68565ad",
    "selectedRows": null,
    "selectedState": false,
    "selectedindex": null,
    "selectedindices": null,
    "selecteditems": null,
    "selectedsectionindex": 0,
    "selectionbehavior": "default",
    "separatorcolor": "aaaaaa00",
    "separatorrequired": true,
    "separatorthickness": 1,
    "showscrollbars": false,
    "swipeContext": {
        "currentPage": 0,
        "imageWidth": 720,
        "widthRatio": 0
    },
    "viewtype": "pageview",
    "wType": "Segment",
    "widgetalignment": 5,
    "widgetdatamap": {
        "flxConsignmentNumber": "flxConsignmentNumber",
        "flxEmail": "flxEmail",
        "flxEnterMail": "flxEnterMail",
        "lblConsignmentNumValue": "lblConsignmentNumValue",
        "lblConsignmnetNumHdr": "lblConsignmnetNumHdr",
        "lblEmailHdr": "lblEmailHdr",
        "lblValidEmail": "lblValidEmail",
        "txtEmail": "txtEmail"
    },
    "zindex": 2
}