{
    "@class": "com.kony.gen.viz.model.component.KVizButton",
    "DNDConfig": null,
    "__parentReadjusting__": false,
    "_height_": {
        "type": "string",
        "value": "24dp"
    },
    "_margin_": [
        6,
        6,
        6,
        6
    ],
    "_padding_": [
        0,
        0,
        0,
        0
    ],
    "_right_": {
        "type": "string",
        "value": "3%"
    },
    "_skin_": "s2b288ce122a4aa9b66fe42b733afba2",
    "_text_": "",
    "_top_": {
        "type": "string",
        "value": "5dp"
    },
    "_width_": {
        "type": "string",
        "value": "28dp"
    },
    "canUpdateUI": true,
    "containerweight": 100,
    "contentalignment": 5,
    "displaytext": true,
    "focusskin": "s2b288ce122a4aa9b66fe42b733afba2",
    "id": "btnDelete",
    "ide_onClick": "AS_Button_g45a47ee500f4788b5d05fa05a8b647b",
    "info": null,
    "iscustomlayout": false,
    "isvisible": true,
    "kuid": "e6350dc1554a457ba78b40fcf760a096",
    "name": "kony.ui.Button",
    "parent": "flxSign",
    "pf": "frmDepotSignOff",
    "retaincontentalignment": false,
    "retainflexpositionproperties": false,
    "wType": "Button",
    "zindex": 1
}