{
    "AS_Button_g947e5b546cd4d7f9a9f2efb7f21b1dc": {
        "id": "AS_Button_g947e5b546cd4d7f9a9f2efb7f21b1dc",
        "type": "ACTION_SEQUENCE",
        "params": [{
            "datatype": "collection",
            "name": "eventobject"
        }, {
            "datatype": "collection",
            "name": "context"
        }],
        "contextObj": {
            "name": "tmpOnboard",
            "type": "templates",
            "platform": "",
            "KUID": "d453de518c884eff9a7cfffca56cd358"
        },
        "language": "js",
        "actions": [{
            "id": "ADD_SNIPPET__d13f8b3f697d497fa3719e065398b8c3",
            "type": "ADD_SNIPPET",
            "codeSnippet": "this.onClickSkip();",
            "parentId": null,
            "callbackType": null
        }]
    }
}