{
    "AS_Button_jc191450e2a04d91940b45a3367a2881": {
        "id": "AS_Button_jc191450e2a04d91940b45a3367a2881",
        "type": "ACTION_SEQUENCE",
        "params": [{
            "datatype": "collection",
            "name": "eventobject"
        }],
        "language": "js",
        "actions": [{
            "id": "INVOKE_FUNCTION__ide_onClick_e90c8c54daa54abaada9c93dd2b243f7",
            "type": "INVOKE_FUNCTION",
            "sequenceKUID": "navigateToCustomerSummary",
            "display": "navigateToCustomerSummary",
            "inputparams": [],
            "callbackType": null,
            "disabled": null,
            "source": "controller"
        }]
    }
}