{
    "AS_Form_jee2faa616024951828fe0c9bab16c82": {
        "id": "AS_Form_jee2faa616024951828fe0c9bab16c82",
        "type": "ACTION_SEQUENCE",
        "params": [{
            "datatype": "collection",
            "name": "eventobject"
        }],
        "contextObj": {
            "name": "frmSplash",
            "type": "forms",
            "platform": "",
            "KUID": "hf840f2958ce46bf9db7effd55f47e48"
        },
        "language": "js",
        "actions": [{
            "id": "ADD_SNIPPET__g4d00b2404584dbabe15958416110b10",
            "type": "ADD_SNIPPET",
            "codeSnippet": "this.onPostShowSplashForm();",
            "parentId": null,
            "callbackType": null
        }]
    }
}