{
    "AS_FlexContainer_f8694800956149d592f35961614fe9a2": {
        "id": "AS_FlexContainer_f8694800956149d592f35961614fe9a2",
        "type": "ACTION_SEQUENCE",
        "params": [{
            "datatype": "collection",
            "name": "eventobject"
        }],
        "contextObj": {
            "name": "frmDepotSignOff",
            "type": "forms",
            "platform": "",
            "KUID": "bb0ebdbeeaa2439e80784688ca4422ab"
        },
        "language": "js",
        "actions": [{
            "id": "ADD_SNIPPET__e59d5c3584a74929b09ca4a8131bb8ef",
            "type": "ADD_SNIPPET",
            "codeSnippet": "this.onConfirmSignOff();",
            "parentId": null,
            "callbackType": null
        }]
    }
}