{
    "AS_TextField_fb9587c512d348c18c9e1d60a2e5ab8f": {
        "id": "AS_TextField_fb9587c512d348c18c9e1d60a2e5ab8f",
        "type": "ACTION_SEQUENCE",
        "params": [{
            "datatype": "collection",
            "name": "eventobject"
        }, {
            "datatype": "string",
            "name": "changedtext"
        }, {
            "datatype": "collection",
            "name": "context"
        }],
        "language": "js",
        "actions": [{
            "id": "INVOKE_FUNCTION__ide_onDone_cd325a86042f446aa1fa47f39f92fc25",
            "type": "INVOKE_FUNCTION",
            "sequenceKUID": "onEnterEmail",
            "display": "onEnterEmail",
            "inputparams": [],
            "callbackType": null,
            "disabled": null,
            "source": "controller"
        }]
    }
}