{
    "AS_UWI_b36a23c291e34a4990eba4ebb6ab53c6": {
        "id": "AS_UWI_b36a23c291e34a4990eba4ebb6ab53c6",
        "type": "ACTION_SEQUENCE",
        "params": [{
            "datatype": "collection",
            "name": "eventobject"
        }],
        "contextObj": {
            "name": "frmDepotSignOff",
            "type": "forms",
            "platform": "",
            "KUID": "bb0ebdbeeaa2439e80784688ca4422ab"
        },
        "language": "js",
        "actions": [{
            "id": "ADD_SNIPPET__i3b1b91e56a949789b6a5cc8a7b9f279",
            "type": "ADD_SNIPPET",
            "codeSnippet": "this.onCancelSignOff();",
            "parentId": null,
            "callbackType": null
        }]
    }
}