{
    "AS_UWI_g63465d8e78740c491260356b5f74ccf": {
        "id": "AS_UWI_g63465d8e78740c491260356b5f74ccf",
        "type": "ACTION_SEQUENCE",
        "params": [{
            "datatype": "collection",
            "name": "eventobject"
        }],
        "contextObj": {
            "name": "frmWasteSummary",
            "type": "forms",
            "platform": "",
            "KUID": "h89f607b589941628051218cec722655"
        },
        "language": "js",
        "actions": [{
            "id": "INVOKE_FUNCTION___e6d36c5b935943d58a2df96a819f8a57",
            "type": "INVOKE_FUNCTION",
            "sequenceKUID": "onClickCancelButtonPopUp",
            "display": "onClickCancelButtonPopUp",
            "inputparams": [],
            "parentId": null,
            "callbackType": null,
            "disabled": null,
            "source": "controller"
        }]
    }
}