{
    "AS_UWI_e1ff7043428b45cdb9840f980471b8f2": {
        "id": "AS_UWI_e1ff7043428b45cdb9840f980471b8f2",
        "type": "ACTION_SEQUENCE",
        "params": [{
            "datatype": "collection",
            "name": "eventobject"
        }],
        "contextObj": {
            "name": "frmWasteSummary",
            "type": "forms",
            "platform": "",
            "KUID": "h89f607b589941628051218cec722655"
        },
        "language": "js",
        "actions": [{
            "id": "INVOKE_FUNCTION___c8811129f5e74a729b97d27500ca52ef",
            "type": "INVOKE_FUNCTION",
            "sequenceKUID": "onSelectSegmentMenu",
            "display": "onSelectSegmentMenu",
            "inputparams": [{
                "name": "eventObj",
                "value": " eventobject"
            }],
            "parentId": null,
            "callbackType": null,
            "disabled": null,
            "source": "controller"
        }]
    }
}