{
    "AS_UWI_c18e7f66cf9d48568f9be7a8fbbdb15b": {
        "id": "AS_UWI_c18e7f66cf9d48568f9be7a8fbbdb15b",
        "type": "ACTION_SEQUENCE",
        "params": [{
            "datatype": "collection",
            "name": "eventobject"
        }],
        "contextObj": {
            "name": "frmDepotAcceptance",
            "type": "forms",
            "platform": "",
            "KUID": "bab76d7e516746cd8fff6d5a43785f1b"
        },
        "language": "js",
        "actions": [{
            "id": "ADD_SNIPPET__d4fb546b7ad14fe5bf842877f57c4f44",
            "type": "ADD_SNIPPET",
            "codeSnippet": "this.onClickPrevPage();",
            "parentId": null,
            "callbackType": null
        }]
    }
}