{
    "AS_UWI_e4f0ba2345764e7db126df8f9ad019bd": {
        "id": "AS_UWI_e4f0ba2345764e7db126df8f9ad019bd",
        "type": "ACTION_SEQUENCE",
        "params": [{
            "datatype": "collection",
            "name": "eventobject"
        }],
        "contextObj": {
            "name": "frmPoliceView",
            "type": "forms",
            "platform": "",
            "KUID": "e2a698c00cac44f5aa33960dded23cfa"
        },
        "language": "js",
        "actions": [{
            "id": "INVOKE_FUNCTION___b97000f043634e00a28fb807bde30395",
            "type": "INVOKE_FUNCTION",
            "sequenceKUID": "onClickPrevButton",
            "display": "onClickPrevButton",
            "inputparams": [],
            "parentId": null,
            "callbackType": null,
            "disabled": null,
            "source": "controller"
        }]
    }
}