{
    "@class": "com.kony.gen.viz.model.container.KVizSegment2",
    "DNDConfig": null,
    "__parentReadjusting__": false,
    "_data_": [
        {
            "btnSelectDepot": {
                "@class": "com.viz.ide.model.segment.SimpleTextSegmentData",
                "text": "SELECT THIS DEPOT"
            },
            "lblAddressLine1": {
                "@class": "com.viz.ide.model.segment.SimpleTextSegmentData",
                "text": "36 Kirkgate"
            },
            "lblAddressLine2": {
                "@class": "com.viz.ide.model.segment.SimpleTextSegmentData",
                "text": "Tadcaster"
            },
            "lblCity": {
                "@class": "com.viz.ide.model.segment.SimpleTextSegmentData",
                "text": "North Yorkshire"
            },
            "lblCustomer": {
                "@class": "com.viz.ide.model.segment.SimpleTextSegmentData",
                "text": "Customer"
            },
            "lblName": {
                "@class": "com.viz.ide.model.segment.SimpleTextSegmentData",
                "text": "R.F & G.M Eades Dental Practice"
            },
            "lblPostCode": {
                "@class": "com.viz.ide.model.segment.SimpleTextSegmentData",
                "text": "LS24 9AD"
            }
        },
        {
            "btnSelectDepot": {
                "@class": "com.viz.ide.model.segment.SimpleTextSegmentData",
                "text": "SELECT THIS DEPOT"
            },
            "lblAddressLine1": {
                "@class": "com.viz.ide.model.segment.SimpleTextSegmentData",
                "text": "36 Kirkgate"
            },
            "lblAddressLine2": {
                "@class": "com.viz.ide.model.segment.SimpleTextSegmentData",
                "text": "Tadcaster"
            },
            "lblCity": {
                "@class": "com.viz.ide.model.segment.SimpleTextSegmentData",
                "text": "North Yorkshire"
            },
            "lblCustomer": {
                "@class": "com.viz.ide.model.segment.SimpleTextSegmentData",
                "text": "Customer"
            },
            "lblName": {
                "@class": "com.viz.ide.model.segment.SimpleTextSegmentData",
                "text": "R.F & G.M Eades Dental Practice"
            },
            "lblPostCode": {
                "@class": "com.viz.ide.model.segment.SimpleTextSegmentData",
                "text": "LS24 9AD"
            }
        },
        {
            "btnSelectDepot": {
                "@class": "com.viz.ide.model.segment.SimpleTextSegmentData",
                "text": "SELECT THIS DEPOT"
            },
            "lblAddressLine1": {
                "@class": "com.viz.ide.model.segment.SimpleTextSegmentData",
                "text": "36 Kirkgate"
            },
            "lblAddressLine2": {
                "@class": "com.viz.ide.model.segment.SimpleTextSegmentData",
                "text": "Tadcaster"
            },
            "lblCity": {
                "@class": "com.viz.ide.model.segment.SimpleTextSegmentData",
                "text": "North Yorkshire"
            },
            "lblCustomer": {
                "@class": "com.viz.ide.model.segment.SimpleTextSegmentData",
                "text": "Customer"
            },
            "lblName": {
                "@class": "com.viz.ide.model.segment.SimpleTextSegmentData",
                "text": "R.F & G.M Eades Dental Practice"
            },
            "lblPostCode": {
                "@class": "com.viz.ide.model.segment.SimpleTextSegmentData",
                "text": "LS24 9AD"
            }
        }
    ],
    "_height_": {
        "type": "ref",
        "value": "preferred"
    },
    "_indicator_": "none",
    "_left_": {
        "type": "string",
        "value": "0dp"
    },
    "_margin_": [
        0,
        0,
        0,
        0
    ],
    "_orientation_": 2,
    "_padding_": [
        0,
        0,
        0,
        0
    ],
    "_top_": {
        "type": "string",
        "value": "20dp"
    },
    "_width_": {
        "type": "string",
        "value": "100%"
    },
    "autogrowmode": 1,
    "canUpdateUI": true,
    "containerweight": 100,
    "counter": "02",
    "focusedindex": null,
    "focuseditem": null,
    "generatedtemplate": "c3bc3cf1c585496d8dc45dbb4cc04828",
    "groupcells": false,
    "hasSections": false,
    "id": "segWasteAcceptance",
    "info": null,
    "ipad": {
        "psp": {
            "indicator": "rowselect"
        }
    },
    "iphone": {
        "psp": {
            "indicator": "rowselect"
        }
    },
    "iscustomlayout": false,
    "isvisible": true,
    "kuid": "i7a7108b241a4d87a9fb9573c7fe3811",
    "masterdata": {},
    "name": "kony.ui.SegmentedUI2",
    "needpageindicator": true,
    "pageoffdotimage": "pageoffdot.png",
    "pageondotimage": "pageondot.png",
    "paginationconfig": {
        "position": "bottom"
    },
    "parent": "flxContent",
    "pf": "frmDepotAcceptance",
    "retaincontentalignment": false,
    "retainflexpositionproperties": false,
    "retainselection": false,
    "rowTemplateId": "a3465da52db447b69b4c8b6a20fe6f61",
    "rowcounter": 2,
    "rowfocusskin": "s8b4bfd449dc4133a9b24752a487c95d",
    "rowskin": "s5ec462af8124782a0c080159665947d",
    "rowtemplate": "flxAddressInfo",
    "screenlevelwidget": false,
    "seccounter": 0,
    "sectionheaderskin": "s4cd093f2844473195744110e68565ad",
    "selectedRows": null,
    "selectedState": false,
    "selectedindex": null,
    "selectedindices": null,
    "selecteditems": null,
    "selectedsectionindex": 0,
    "selectionbehavior": "default",
    "separatorrequired": false,
    "showscrollbars": false,
    "viewtype": "tableview",
    "wType": "Segment",
    "widgetalignment": 5,
    "widgetdatamap": {
        "btnSelectDepot": "btnSelectDepot",
        "flxAddressInfo": "flxAddressInfo",
        "flxBorder": "flxBorder",
        "flxContent": "flxContent",
        "lblAddressLine1": "lblAddressLine1",
        "lblAddressLine2": "lblAddressLine2",
        "lblCity": "lblCity",
        "lblCustomer": "lblCustomer",
        "lblName": "lblName",
        "lblPostCode": "lblPostCode"
    },
    "zindex": 1
}