{
    "@class": "com.kony.gen.viz.model.component.KVizImage2",
    "DNDConfig": null,
    "__parentReadjusting__": false,
    "_base64_": null,
    "_height_": {
        "type": "string",
        "value": "15dp"
    },
    "_left_": {
        "type": "string",
        "value": "63%"
    },
    "_margin_": [
        0,
        0,
        0,
        0
    ],
    "_padding_": [
        0,
        0,
        0,
        0
    ],
    "_skin_": "se63320f4ae9401fb0e2d0be6dabdfe2",
    "_src_": "rightarrow.png",
    "_top_": {
        "type": "string",
        "value": "29%"
    },
    "_width_": {
        "type": "string",
        "value": "15dp"
    },
    "canUpdateUI": true,
    "containerweight": 100,
    "context": {
        "channel": "mobile",
        "formID": "uwuc9f7fde32904c3f854c54301a978342",
        "platform": "android",
        "templateType": "userwidgets",
        "topLevelBox": null
    },
    "id": "imgRight",
    "imagescalemode": 1,
    "info": null,
    "iscustomlayout": false,
    "isvisible": true,
    "kuid": "f23b351b3f304d7eb960f403c7266180",
    "name": "kony.ui.Image2",
    "parent": "flxPageNum",
    "pf": "userwidgetmodel",
    "retaincontentalignment": false,
    "retainflexpositionproperties": false,
    "srcType": 1,
    "wType": "Image",
    "widgetalignment": 5,
    "zindex": 1
}